Introducing the Fisheries Integrated Modeling System (FIMS) • FIMS
…
# Or, look at the structure using str()
# Increase max.level to see more of the structure
str(data_4_model, max.level = 1)

## Formal class 'FIMSFrame' [package "FIMS"] with 9 slots

# Use dplyr to subset the data for just the landings
get_data(data_4_model) |>
  dplyr::filter(type == "landings")

## # A tibble: 30 × 10
##    type   name    age length datestart dateend  value unit  uncertainty  year
##    <chr>  <chr> <int>  <dbl> <date>    <date>   <dbl> <chr>       <dbl> <dbl>
##  1 landi… flee…    NA     NA 1-01-01   1-12-31   162. mt        0.01000     1
##  2 landi… flee…    NA     NA 2-01-01   2-12-31   461. mt        0.01000     2
##  3 landi… flee…    NA     NA 3-01-01   3-12-31   747. mt        0.01000     3
##  4 landi… flee…    NA     NA 4-01-01   4-12-31   997. mt        0.01000     4
##  5 landi… flee…    NA     NA 5-01-01   5-12-31   768. mt        0.01000     5
##  6 landi… flee…    NA     NA 6-01-01   6-12-31  1344. mt        0.01000     6
##  7 landi… flee…    NA     NA 7-01-01   7-12-31  1319. mt        0.01000     7
##  8 landi… flee…    NA     NA 8-01-01   8-12-31  2598. mt        0.01000     8
##  9 landi… flee…    NA     NA 9-01-01   9-12-31  1426. mt        0.01000     9
## 10 landi… flee…    NA     NA 10-01-01  10-12-31 1644. mt        0.01000    10
## # ℹ 20 more rows
…
