…
``` r
# Or, look at the structure using str()
# Increase max.level to see more of the structure
str(data_4_model, max.level = 1)
```

    ## Formal class 'FIMSFrame' [package "FIMS"] with 9 slots

``` r
# Use dplyr to subset the data for just the landings
get_data(data_4_model) |>
  dplyr::filter(type == "landings")
```

    ## # A tibble: 30 × 8
    ##    type     name     age length timing value unit  uncertainty
    ##    <chr>    <chr>  <int>  <dbl>  <int> <dbl> <chr>       <dbl>
    ##  1 landings fleet1    NA     NA      1  162. mt        0.01000
    ##  2 landings fleet1    NA     NA      2  461. mt        0.01000
    ##  3 landings fleet1    NA     NA      3  747. mt        0.01000
    ##  4 landings fleet1    NA     NA      4  997. mt        0.01000
    ##  5 landings fleet1    NA     NA      5  768. mt        0.01000
    ##  6 landings fleet1    NA     NA      6 1344. mt        0.01000
    ##  7 landings fleet1    NA     NA      7 1319. mt        0.01000
    ##  8 landings fleet1    NA     NA      8 2598. mt        0.01000
    ##  9 landings fleet1    NA     NA      9 1426. mt        0.01000
    ## 10 landings fleet1    NA     NA     10 1644. mt        0.01000
    ## # ℹ 20 more rows
…
``` r
# Unnest the default_parameters to see the detailed parameters
default_parameters_unnested <- tidyr::unnest(default_parameters, cols = data)

default_parameters_unnested
```

``` numberSource
## # A tibble: 655 × 13
##    model_family module_name fleet_name module_type label distribution_link   age
##    <chr>        <chr>       <chr>      <chr>       <chr> <chr>             <dbl>
##  1 catch_at_age Selectivity fleet1     Logistic    infl… <NA>                 NA
##  2 catch_at_age Selectivity fleet1     Logistic    slope <NA>                 NA
##  3 catch_at_age Fleet       fleet1     <NA>        log_q <NA>                 NA
##  4 catch_at_age Fleet       fleet1     <NA>        log_… <NA>                 NA
##  5 catch_at_age Fleet       fleet1     <NA>        log_… <NA>                 NA
##  6 catch_at_age Fleet       fleet1     <NA>        log_… <NA>                 NA
##  7 catch_at_age Fleet       fleet1     <NA>        log_… <NA>                 NA
##  8 catch_at_age Fleet       fleet1     <NA>        log_… <NA>                 NA
##  9 catch_at_age Fleet       fleet1     <NA>        log_… <NA>                 NA
## 10 catch_at_age Fleet       fleet1     <NA>        log_… <NA>                 NA
## # ℹ 645 more rows
## # ℹ 6 more variables: length <dbl>, time <int>, value <dbl>,
## #   estimation_type <chr>, distribution_type <chr>, distribution <chr>
```
…
